<?xml version="1.0" encoding="UTF-8"?>
<svg width="20px" height="368px" viewBox="0 0 20 368" version="1.1" xmlns="http://www.w3.org/2000/svg" xmlns:xlink="http://www.w3.org/1999/xlink">
    <title>irregular azul_der</title>
    <defs>
        <path d="M0,368 L0,0 L12,0 L12.0000469,0.134399786 C12.9156725,0.425165269 13.9733204,1.10004983 14.1838678,1.26896552 C18.1420974,4.44011034 16.9128456,7.30289655 18.0199478,11.5640828 C19.2928245,16.4610207 17.9317287,21.6054069 17.6699794,26.5175724 C17.5255327,29.2065103 17.8677455,31.9220966 17.7165126,34.6059586 C17.4760911,38.896331 15.7592102,42.9620966 15.8125295,47.2956138 C15.8900848,53.6873931 19.3655326,59.8063448 19.467324,66.1587862 C19.574932,72.828469 19.9665863,79.1796414 19.0824557,85.8353655 L19.0824557,85.8353655 L18.8644231,87.485197 C17.1336177,100.677298 15.7853463,113.71601 19.1115389,126.877517 C19.6757539,129.109628 19.6699372,130.653959 19.4818656,133.649986 C19.0310753,140.855172 17.7291153,143.285241 17.2880195,148.257048 C16.9244789,162.676303 20.8875558,176.969931 19.8153534,191.392993 C19.0630668,199.732634 17.5090522,207.749959 18.009284,216.178428 C18.9215284,223.761766 18.8236148,231.60651 15.9724874,238.890372 C14.3418868,244.539807 15.9201375,251.217103 16.832382,256.761214 C17.5342576,261.036359 17.6593156,265.336883 17.6525295,269.641214 C17.6050269,277.761324 18.9632144,286.018483 16.8217181,294.021848 C15.2830573,299.442389 15.7683445,304.959098 16.3155461,310.468637 L16.4470586,311.790735 C16.6648789,313.993827 16.8674915,316.194448 16.9293261,318.385986 C16.8779458,323.355255 17.0660174,328.335945 16.93999,333.303945 C15.7543631,343.520386 18.8875979,353.862455 14.0510544,363.603034 C13.440999,365.0935 13.2620457,367.26019 12.0015848,367.848068 L12,368 L0,368 Z" id="path-1"></path>
    </defs>
    <g id="Page-1" stroke="none" stroke-width="1" fill="none" fill-rule="evenodd">
        <g id="irregular-azul_der" transform="translate(10.000000, 184.000000) scale(-1, 1) translate(-10.000000, -184.000000) ">
            <mask id="mask-2" fill="#F3F3F3">
                <use xlink:href="#path-1"></use>
            </mask>
            <use id="Combined-Shape" fill="#F3F3F3" fill-rule="nonzero" xlink:href="#path-1"></use>
        </g>
    </g>
</svg>